{
    "data": [
      {
        "id": 139470659,
        "readable": true,
        "title": "Shape of You",
        "title_short": "Shape of You",
        "title_version": "",
        "link": "https://www.deezer.com/track/139470659",
        "duration": 233,
        "rank": 1000000,
        "explicit_lyrics": false,
        "explicit_content_lyrics": 6,
        "explicit_content_cover": 2,
        "preview": "https://cdns-preview-d.dzcdn.net/stream/c-d8f5b81a6243ddfa4c97b9a4c86a82fa-4.mp3",
        "artist": {
          "id": 384236,
          "name": "Ed Sheeran",
          "link": "https://www.deezer.com/artist/384236",
          "picture": "https://api.deezer.com/artist/384236/image",
          "picture_small": "https://cdns-images.dzcdn.net/images/artist/2a03fcb312d1fe3825f81a94c5d70741/56x56-000000-80-0-0.jpg",
          "picture_medium": "https://cdns-images.dzcdn.net/images/artist/2a03fcb312d1fe3825f81a94c5d70741/250x250-000000-80-0-0.jpg",
          "picture_big": "https://cdns-images.dzcdn.net/images/artist/2a03fcb312d1fe3825f81a94c5d70741/500x500-000000-80-0-0.jpg",
          "picture_xl": "https://cdns-images.dzcdn.net/images/artist/2a03fcb312d1fe3825f81a94c5d70741/1000x1000-000000-80-0-0.jpg",
          "tracklist": "https://api.deezer.com/artist/384236/top?limit=50",
          "type": "artist"
        },
        "album": {
          "id": 14996073,
          "title": "Shape of You",
          "cover": "https://api.deezer.com/album/14996073/image",
          "cover_small": "https://cdns-images.dzcdn.net/images/cover/107c2b43f10c249077c1f7618563bb63/56x56-000000-80-0-0.jpg",
          "cover_medium": "https://cdns-images.dzcdn.net/images/cover/107c2b43f10c249077c1f7618563bb63/250x250-000000-80-0-0.jpg",
          "cover_big": "https://cdns-images.dzcdn.net/images/cover/107c2b43f10c249077c1f7618563bb63/500x500-000000-80-0-0.jpg",
          "cover_xl": "https://cdns-images.dzcdn.net/images/cover/107c2b43f10c249077c1f7618563bb63/1000x1000-000000-80-0-0.jpg",
          "tracklist": "https://api.deezer.com/album/14996073/tracks",
          "type": "album"
        },
        "type": "track"
      },
      {
        "id": 142986206,
        "readable": true,
        "title": "Perfect",
        "title_short": "Perfect",
        "title_version": "",
        "link": "https://www.deezer.com/track/142986206",
        "duration": 263,
        "rank": 964953,
        "explicit_lyrics": false,
        "explicit_content_lyrics": 6,
        "explicit_content_cover": 0,
        "preview": "https://cdns-preview-f.dzcdn.net/stream/c-f4d04fa22ff3cc680cad30eea149cc1d-4.mp3",
        "artist": {
          "id": 384236,
          "name": "Ed Sheeran",
          "link": "https://www.deezer.com/artist/384236",
          "picture": "https://api.deezer.com/artist/384236/image",
          "picture_small": "https://cdns-images.dzcdn.net/images/artist/2a03fcb312d1fe3825f81a94c5d70741/56x56-000000-80-0-0.jpg",
          "picture_medium": "https://cdns-images.dzcdn.net/images/artist/2a03fcb312d1fe3825f81a94c5d70741/250x250-000000-80-0-0.jpg",
          "picture_big": "https://cdns-images.dzcdn.net/images/artist/2a03fcb312d1fe3825f81a94c5d70741/500x500-000000-80-0-0.jpg",
          "picture_xl": "https://cdns-images.dzcdn.net/images/artist/2a03fcb312d1fe3825f81a94c5d70741/1000x1000-000000-80-0-0.jpg",
          "tracklist": "https://api.deezer.com/artist/384236/top?limit=50",
          "type": "artist"
        },
        "album": {
          "id": 15478674,
          "title": "รท (Deluxe)",
          "cover": "https://api.deezer.com/album/15478674/image",
          "cover_small": "https://cdns-images.dzcdn.net/images/cover/000a9228cecfcc7c2093d9cd7bb66447/56x56-000000-80-0-0.jpg",
          "cover_medium": "https://cdns-images.dzcdn.net/images/cover/000a9228cecfcc7c2093d9cd7bb66447/250x250-000000-80-0-0.jpg",
          "cover_big": "https://cdns-images.dzcdn.net/images/cover/000a9228cecfcc7c2093d9cd7bb66447/500x500-000000-80-0-0.jpg",
          "cover_xl": "https://cdns-images.dzcdn.net/images/cover/000a9228cecfcc7c2093d9cd7bb66447/1000x1000-000000-80-0-0.jpg",
          "tracklist": "https://api.deezer.com/album/15478674/tracks",
          "type": "album"
        },
        "type": "track"
      },
      {
        "id": 79875054,
        "readable": true,
        "title": "Photograph",
        "title_short": "Photograph",
        "title_version": "",
        "link": "https://www.deezer.com/track/79875054",
        "duration": 258,
        "rank": 966873,
        "explicit_lyrics": false,
        "explicit_content_lyrics": 0,
        "explicit_content_cover": 0,
        "preview": "https://cdns-preview-e.dzcdn.net/stream/c-ebc5cfa3c7e0fbd4efd668f3a07f17c1-1.mp3",
        "artist": {
          "id": 384236,
          "name": "Ed Sheeran",
          "link": "https://www.deezer.com/artist/384236",
          "picture": "https://api.deezer.com/artist/384236/image",
          "picture_small": "https://cdns-images.dzcdn.net/images/artist/2a03fcb312d1fe3825f81a94c5d70741/56x56-000000-80-0-0.jpg",
          "picture_medium": "https://cdns-images.dzcdn.net/images/artist/2a03fcb312d1fe3825f81a94c5d70741/250x250-000000-80-0-0.jpg",
          "picture_big": "https://cdns-images.dzcdn.net/images/artist/2a03fcb312d1fe3825f81a94c5d70741/500x500-000000-80-0-0.jpg",
          "picture_xl": "https://cdns-images.dzcdn.net/images/artist/2a03fcb312d1fe3825f81a94c5d70741/1000x1000-000000-80-0-0.jpg",
          "tracklist": "https://api.deezer.com/artist/384236/top?limit=50",
          "type": "artist"
        },
        "album": {
          "id": 7964062,
          "title": "x (Deluxe Edition)",
          "cover": "https://api.deezer.com/album/7964062/image",
          "cover_small": "https://cdns-images.dzcdn.net/images/cover/b1d763da698c38bde6a526c8220ca0ea/56x56-000000-80-0-0.jpg",
          "cover_medium": "https://cdns-images.dzcdn.net/images/cover/b1d763da698c38bde6a526c8220ca0ea/250x250-000000-80-0-0.jpg",
          "cover_big": "https://cdns-images.dzcdn.net/images/cover/b1d763da698c38bde6a526c8220ca0ea/500x500-000000-80-0-0.jpg",
          "cover_xl": "https://cdns-images.dzcdn.net/images/cover/b1d763da698c38bde6a526c8220ca0ea/1000x1000-000000-80-0-0.jpg",
          "tracklist": "https://api.deezer.com/album/7964062/tracks",
          "type": "album"
        },
        "type": "track"
      },
      {
        "id": 79875064,
        "readable": true,
        "title": "Thinking out Loud",
        "title_short": "Thinking out Loud",
        "title_version": "",
        "link": "https://www.deezer.com/track/79875064",
        "duration": 281,
        "rank": 966384,
        "explicit_lyrics": false,
        "explicit_content_lyrics": 6,
        "explicit_content_cover": 0,
        "preview": "https://cdns-preview-2.dzcdn.net/stream/c-2c5807cf009b065b576c7781973241ef-3.mp3",
        "artist": {
          "id": 384236,
          "name": "Ed Sheeran",
          "link": "https://www.deezer.com/artist/384236",
          "picture": "https://api.deezer.com/artist/384236/image",
          "picture_small": "https://cdns-images.dzcdn.net/images/artist/2a03fcb312d1fe3825f81a94c5d70741/56x56-000000-80-0-0.jpg",
          "picture_medium": "https://cdns-images.dzcdn.net/images/artist/2a03fcb312d1fe3825f81a94c5d70741/250x250-000000-80-0-0.jpg",
          "picture_big": "https://cdns-images.dzcdn.net/images/artist/2a03fcb312d1fe3825f81a94c5d70741/500x500-000000-80-0-0.jpg",
          "picture_xl": "https://cdns-images.dzcdn.net/images/artist/2a03fcb312d1fe3825f81a94c5d70741/1000x1000-000000-80-0-0.jpg",
          "tracklist": "https://api.deezer.com/artist/384236/top?limit=50",
          "type": "artist"
        },
        "album": {
          "id": 7964062,
          "title": "x (Deluxe Edition)",
          "cover": "https://api.deezer.com/album/7964062/image",
          "cover_small": "https://cdns-images.dzcdn.net/images/cover/b1d763da698c38bde6a526c8220ca0ea/56x56-000000-80-0-0.jpg",
          "cover_medium": "https://cdns-images.dzcdn.net/images/cover/b1d763da698c38bde6a526c8220ca0ea/250x250-000000-80-0-0.jpg",
          "cover_big": "https://cdns-images.dzcdn.net/images/cover/b1d763da698c38bde6a526c8220ca0ea/500x500-000000-80-0-0.jpg",
          "cover_xl": "https://cdns-images.dzcdn.net/images/cover/b1d763da698c38bde6a526c8220ca0ea/1000x1000-000000-80-0-0.jpg",
          "tracklist": "https://api.deezer.com/album/7964062/tracks",
          "type": "album"
        },
        "type": "track"
      },
      {
        "id": 686630572,
        "readable": true,
        "title": "I Don't Care (Acoustic)",
        "title_short": "I Don't Care",
        "title_version": "(Acoustic)",
        "link": "https://www.deezer.com/track/686630572",
        "duration": 238,
        "rank": 898296,
        "explicit_lyrics": false,
        "explicit_content_lyrics": 0,
        "explicit_content_cover": 2,
        "preview": "https://cdns-preview-d.dzcdn.net/stream/c-d77ed69aa0269178c6b0725abd589401-3.mp3",
        "artist": {
          "id": 384236,
          "name": "Ed Sheeran",
          "link": "https://www.deezer.com/artist/384236",
          "picture": "https://api.deezer.com/artist/384236/image",
          "picture_small": "https://cdns-images.dzcdn.net/images/artist/2a03fcb312d1fe3825f81a94c5d70741/56x56-000000-80-0-0.jpg",
          "picture_medium": "https://cdns-images.dzcdn.net/images/artist/2a03fcb312d1fe3825f81a94c5d70741/250x250-000000-80-0-0.jpg",
          "picture_big": "https://cdns-images.dzcdn.net/images/artist/2a03fcb312d1fe3825f81a94c5d70741/500x500-000000-80-0-0.jpg",
          "picture_xl": "https://cdns-images.dzcdn.net/images/artist/2a03fcb312d1fe3825f81a94c5d70741/1000x1000-000000-80-0-0.jpg",
          "tracklist": "https://api.deezer.com/artist/384236/top?limit=50",
          "type": "artist"
        },
        "album": {
          "id": 98355002,
          "title": "I Don't Care (Acoustic)",
          "cover": "https://api.deezer.com/album/98355002/image",
          "cover_small": "https://cdns-images.dzcdn.net/images/cover/df1eb3ecc8da74a07ad6280c4971cca8/56x56-000000-80-0-0.jpg",
          "cover_medium": "https://cdns-images.dzcdn.net/images/cover/df1eb3ecc8da74a07ad6280c4971cca8/250x250-000000-80-0-0.jpg",
          "cover_big": "https://cdns-images.dzcdn.net/images/cover/df1eb3ecc8da74a07ad6280c4971cca8/500x500-000000-80-0-0.jpg",
          "cover_xl": "https://cdns-images.dzcdn.net/images/cover/df1eb3ecc8da74a07ad6280c4971cca8/1000x1000-000000-80-0-0.jpg",
          "tracklist": "https://api.deezer.com/album/98355002/tracks",
          "type": "album"
        },
        "type": "track"
      },
      {
        "id": 142986204,
        "readable": true,
        "title": "Shape of You",
        "title_short": "Shape of You",
        "title_version": "",
        "link": "https://www.deezer.com/track/142986204",
        "duration": 233,
        "rank": 893546,
        "explicit_lyrics": false,
        "explicit_content_lyrics": 6,
        "explicit_content_cover": 0,
        "preview": "https://cdns-preview-d.dzcdn.net/stream/c-d8f5b81a6243ddfa4c97b9a4c86a82fa-4.mp3",
        "artist": {
          "id": 384236,
          "name": "Ed Sheeran",
          "link": "https://www.deezer.com/artist/384236",
          "picture": "https://api.deezer.com/artist/384236/image",
          "picture_small": "https://cdns-images.dzcdn.net/images/artist/2a03fcb312d1fe3825f81a94c5d70741/56x56-000000-80-0-0.jpg",
          "picture_medium": "https://cdns-images.dzcdn.net/images/artist/2a03fcb312d1fe3825f81a94c5d70741/250x250-000000-80-0-0.jpg",
          "picture_big": "https://cdns-images.dzcdn.net/images/artist/2a03fcb312d1fe3825f81a94c5d70741/500x500-000000-80-0-0.jpg",
          "picture_xl": "https://cdns-images.dzcdn.net/images/artist/2a03fcb312d1fe3825f81a94c5d70741/1000x1000-000000-80-0-0.jpg",
          "tracklist": "https://api.deezer.com/artist/384236/top?limit=50",
          "type": "artist"
        },
        "album": {
          "id": 15478674,
          "title": "รท (Deluxe)",
          "cover": "https://api.deezer.com/album/15478674/image",
          "cover_small": "https://cdns-images.dzcdn.net/images/cover/000a9228cecfcc7c2093d9cd7bb66447/56x56-000000-80-0-0.jpg",
          "cover_medium": "https://cdns-images.dzcdn.net/images/cover/000a9228cecfcc7c2093d9cd7bb66447/250x250-000000-80-0-0.jpg",
          "cover_big": "https://cdns-images.dzcdn.net/images/cover/000a9228cecfcc7c2093d9cd7bb66447/500x500-000000-80-0-0.jpg",
          "cover_xl": "https://cdns-images.dzcdn.net/images/cover/000a9228cecfcc7c2093d9cd7bb66447/1000x1000-000000-80-0-0.jpg",
          "tracklist": "https://api.deezer.com/album/15478674/tracks",
          "type": "album"
        },
        "type": "track"
      },
      {
        "id": 142986210,
        "readable": true,
        "title": "Happier",
        "title_short": "Happier",
        "title_version": "",
        "link": "https://www.deezer.com/track/142986210",
        "duration": 207,
        "rank": 891307,
        "explicit_lyrics": false,
        "explicit_content_lyrics": 6,
        "explicit_content_cover": 0,
        "preview": "https://cdns-preview-9.dzcdn.net/stream/c-9b8f9599b5c68303edbff64cee211f78-4.mp3",
        "artist": {
          "id": 384236,
          "name": "Ed Sheeran",
          "link": "https://www.deezer.com/artist/384236",
          "picture": "https://api.deezer.com/artist/384236/image",
          "picture_small": "https://cdns-images.dzcdn.net/images/artist/2a03fcb312d1fe3825f81a94c5d70741/56x56-000000-80-0-0.jpg",
          "picture_medium": "https://cdns-images.dzcdn.net/images/artist/2a03fcb312d1fe3825f81a94c5d70741/250x250-000000-80-0-0.jpg",
          "picture_big": "https://cdns-images.dzcdn.net/images/artist/2a03fcb312d1fe3825f81a94c5d70741/500x500-000000-80-0-0.jpg",
          "picture_xl": "https://cdns-images.dzcdn.net/images/artist/2a03fcb312d1fe3825f81a94c5d70741/1000x1000-000000-80-0-0.jpg",
          "tracklist": "https://api.deezer.com/artist/384236/top?limit=50",
          "type": "artist"
        },
        "album": {
          "id": 15478674,
          "title": "รท (Deluxe)",
          "cover": "https://api.deezer.com/album/15478674/image",
          "cover_small": "https://cdns-images.dzcdn.net/images/cover/000a9228cecfcc7c2093d9cd7bb66447/56x56-000000-80-0-0.jpg",
          "cover_medium": "https://cdns-images.dzcdn.net/images/cover/000a9228cecfcc7c2093d9cd7bb66447/250x250-000000-80-0-0.jpg",
          "cover_big": "https://cdns-images.dzcdn.net/images/cover/000a9228cecfcc7c2093d9cd7bb66447/500x500-000000-80-0-0.jpg",
          "cover_xl": "https://cdns-images.dzcdn.net/images/cover/000a9228cecfcc7c2093d9cd7bb66447/1000x1000-000000-80-0-0.jpg",
          "tracklist": "https://api.deezer.com/album/15478674/tracks",
          "type": "album"
        },
        "type": "track"
      },
      {
        "id": 142986208,
        "readable": true,
        "title": "Galway Girl",
        "title_short": "Galway Girl",
        "title_version": "",
        "link": "https://www.deezer.com/track/142986208",
        "duration": 170,
        "rank": 853972,
        "explicit_lyrics": false,
        "explicit_content_lyrics": 6,
        "explicit_content_cover": 0,
        "preview": "https://cdns-preview-8.dzcdn.net/stream/c-8f69ce870b8607a332b953174c57a39b-4.mp3",
        "artist": {
          "id": 384236,
          "name": "Ed Sheeran",
          "link": "https://www.deezer.com/artist/384236",
          "picture": "https://api.deezer.com/artist/384236/image",
          "picture_small": "https://cdns-images.dzcdn.net/images/artist/2a03fcb312d1fe3825f81a94c5d70741/56x56-000000-80-0-0.jpg",
          "picture_medium": "https://cdns-images.dzcdn.net/images/artist/2a03fcb312d1fe3825f81a94c5d70741/250x250-000000-80-0-0.jpg",
          "picture_big": "https://cdns-images.dzcdn.net/images/artist/2a03fcb312d1fe3825f81a94c5d70741/500x500-000000-80-0-0.jpg",
          "picture_xl": "https://cdns-images.dzcdn.net/images/artist/2a03fcb312d1fe3825f81a94c5d70741/1000x1000-000000-80-0-0.jpg",
          "tracklist": "https://api.deezer.com/artist/384236/top?limit=50",
          "type": "artist"
        },
        "album": {
          "id": 15478674,
          "title": "รท (Deluxe)",
          "cover": "https://api.deezer.com/album/15478674/image",
          "cover_small": "https://cdns-images.dzcdn.net/images/cover/000a9228cecfcc7c2093d9cd7bb66447/56x56-000000-80-0-0.jpg",
          "cover_medium": "https://cdns-images.dzcdn.net/images/cover/000a9228cecfcc7c2093d9cd7bb66447/250x250-000000-80-0-0.jpg",
          "cover_big": "https://cdns-images.dzcdn.net/images/cover/000a9228cecfcc7c2093d9cd7bb66447/500x500-000000-80-0-0.jpg",
          "cover_xl": "https://cdns-images.dzcdn.net/images/cover/000a9228cecfcc7c2093d9cd7bb66447/1000x1000-000000-80-0-0.jpg",
          "tracklist": "https://api.deezer.com/album/15478674/tracks",
          "type": "album"
        },
        "type": "track"
      },
      {
        "id": 141827557,
        "readable": true,
        "title": "Shape of You (Acoustic)",
        "title_short": "Shape of You",
        "title_version": "(Acoustic)",
        "link": "https://www.deezer.com/track/141827557",
        "duration": 223,
        "rank": 849553,
        "explicit_lyrics": false,
        "explicit_content_lyrics": 6,
        "explicit_content_cover": 0,
        "preview": "https://cdns-preview-4.dzcdn.net/stream/c-457f6d11ff98d5650874d0272e03a50f-4.mp3",
        "artist": {
          "id": 384236,
          "name": "Ed Sheeran",
          "link": "https://www.deezer.com/artist/384236",
          "picture": "https://api.deezer.com/artist/384236/image",
          "picture_small": "https://cdns-images.dzcdn.net/images/artist/2a03fcb312d1fe3825f81a94c5d70741/56x56-000000-80-0-0.jpg",
          "picture_medium": "https://cdns-images.dzcdn.net/images/artist/2a03fcb312d1fe3825f81a94c5d70741/250x250-000000-80-0-0.jpg",
          "picture_big": "https://cdns-images.dzcdn.net/images/artist/2a03fcb312d1fe3825f81a94c5d70741/500x500-000000-80-0-0.jpg",
          "picture_xl": "https://cdns-images.dzcdn.net/images/artist/2a03fcb312d1fe3825f81a94c5d70741/1000x1000-000000-80-0-0.jpg",
          "tracklist": "https://api.deezer.com/artist/384236/top?limit=50",
          "type": "artist"
        },
        "album": {
          "id": 15319389,
          "title": "Shape of You (Acoustic)",
          "cover": "https://api.deezer.com/album/15319389/image",
          "cover_small": "https://cdns-images.dzcdn.net/images/cover/107c2b43f10c249077c1f7618563bb63/56x56-000000-80-0-0.jpg",
          "cover_medium": "https://cdns-images.dzcdn.net/images/cover/107c2b43f10c249077c1f7618563bb63/250x250-000000-80-0-0.jpg",
          "cover_big": "https://cdns-images.dzcdn.net/images/cover/107c2b43f10c249077c1f7618563bb63/500x500-000000-80-0-0.jpg",
          "cover_xl": "https://cdns-images.dzcdn.net/images/cover/107c2b43f10c249077c1f7618563bb63/1000x1000-000000-80-0-0.jpg",
          "tracklist": "https://api.deezer.com/album/15319389/tracks",
          "type": "album"
        },
        "type": "track"
      },
      {
        "id": 73135389,
        "readable": true,
        "title": "I See Fire",
        "title_short": "I See Fire",
        "title_version": "",
        "link": "https://www.deezer.com/track/73135389",
        "duration": 300,
        "rank": 833392,
        "explicit_lyrics": false,
        "explicit_content_lyrics": 0,
        "explicit_content_cover": 0,
        "preview": "https://cdns-preview-9.dzcdn.net/stream/c-980372a5c51e9541550b8659d4fe1127-6.mp3",
        "artist": {
          "id": 384236,
          "name": "Ed Sheeran",
          "link": "https://www.deezer.com/artist/384236",
          "picture": "https://api.deezer.com/artist/384236/image",
          "picture_small": "https://cdns-images.dzcdn.net/images/artist/2a03fcb312d1fe3825f81a94c5d70741/56x56-000000-80-0-0.jpg",
          "picture_medium": "https://cdns-images.dzcdn.net/images/artist/2a03fcb312d1fe3825f81a94c5d70741/250x250-000000-80-0-0.jpg",
          "picture_big": "https://cdns-images.dzcdn.net/images/artist/2a03fcb312d1fe3825f81a94c5d70741/500x500-000000-80-0-0.jpg",
          "picture_xl": "https://cdns-images.dzcdn.net/images/artist/2a03fcb312d1fe3825f81a94c5d70741/1000x1000-000000-80-0-0.jpg",
          "tracklist": "https://api.deezer.com/artist/384236/top?limit=50",
          "type": "artist"
        },
        "album": {
          "id": 7196823,
          "title": "The Hobbit - The Desolation Of Smaug (Original Motion Picture Soundtrack / Special Edition)",
          "cover": "https://api.deezer.com/album/7196823/image",
          "cover_small": "https://cdns-images.dzcdn.net/images/cover/69839c8b21c5f526f7ac15b13eafb147/56x56-000000-80-0-0.jpg",
          "cover_medium": "https://cdns-images.dzcdn.net/images/cover/69839c8b21c5f526f7ac15b13eafb147/250x250-000000-80-0-0.jpg",
          "cover_big": "https://cdns-images.dzcdn.net/images/cover/69839c8b21c5f526f7ac15b13eafb147/500x500-000000-80-0-0.jpg",
          "cover_xl": "https://cdns-images.dzcdn.net/images/cover/69839c8b21c5f526f7ac15b13eafb147/1000x1000-000000-80-0-0.jpg",
          "tracklist": "https://api.deezer.com/album/7196823/tracks",
          "type": "album"
        },
        "type": "track"
      }
    ],
    "total": 299,
    "next": "https://api.deezer.com/search?q=ed%25sheeran&offset=0&limit=10&type=artist&request_method=GET&index=10"
  }